integrated.Modules.Hydrology.Routing package
============================================

Submodules
----------

integrated.Modules.Hydrology.Routing.Routing module
---------------------------------------------------

.. automodule:: integrated.Modules.Hydrology.Routing.Routing
    :members:
    :undoc-members:
    :show-inheritance:

integrated.Modules.Hydrology.Routing.main module
------------------------------------------------

.. automodule:: integrated.Modules.Hydrology.Routing.main
    :members:
    :undoc-members:
    :show-inheritance:


Module contents
---------------

.. automodule:: integrated.Modules.Hydrology.Routing
    :members:
    :undoc-members:
    :show-inheritance:
