integrated.Modules.Farm.PumpingSystems package
==============================================

Submodules
----------

integrated.Modules.Farm.PumpingSystems.PumpingSystem module
-----------------------------------------------------------

.. automodule:: integrated.Modules.Farm.PumpingSystems.PumpingSystem
    :members:
    :undoc-members:
    :show-inheritance:


Module contents
---------------

.. automodule:: integrated.Modules.Farm.PumpingSystems
    :members:
    :undoc-members:
    :show-inheritance:
