integrated.Modules.Groundwater.GISInterface.GDALInterface package
=================================================================

Submodules
----------

integrated.Modules.Groundwater.GISInterface.GDALInterface.GDALInterface module
------------------------------------------------------------------------------

.. automodule:: integrated.Modules.Groundwater.GISInterface.GDALInterface.GDALInterface
    :members:
    :undoc-members:
    :show-inheritance:

integrated.Modules.Groundwater.GISInterface.GDALInterface.fishnet module
------------------------------------------------------------------------

.. automodule:: integrated.Modules.Groundwater.GISInterface.GDALInterface.fishnet
    :members:
    :undoc-members:
    :show-inheritance:

integrated.Modules.Groundwater.GISInterface.GDALInterface.reproject module
--------------------------------------------------------------------------

.. automodule:: integrated.Modules.Groundwater.GISInterface.GDALInterface.reproject
    :members:
    :undoc-members:
    :show-inheritance:


Module contents
---------------

.. automodule:: integrated.Modules.Groundwater.GISInterface.GDALInterface
    :members:
    :undoc-members:
    :show-inheritance:
